^C:\DONE_HOMEWORK_SB\FLOWCONTROLSB_DONE\CONSOLEA.AF08C04F\X64\DEBUG\CONSOLEAPPLICATION1.OBJ
C:\DONE_HOMEWORK_SB\FLOWCONTROLSB_DONE\X64\DEBUG\CONSOLEAPPLICATION1.EXE
C:\DONE_HOMEWORK_SB\FLOWCONTROLSB_DONE\X64\DEBUG\CONSOLEAPPLICATION1.PDB
